{
    "Bicycle": {
        "footprintSuffix": "kg CO2/Week",
        "inputValues": [
            "0",
            "Once a week",
            "Twice a week",
            "3x a week",
            "5x a week",
            "Everyday",
            "Twice a day",
            "More than twice a day"
        ],
        "footprintValues": [
            "0",
            "0",
            "0",
            "0",
            "0",
            "0",
            "0",
            "0"
        ]
    },
    "Car": {
        "footprintSuffix": "kg CO2/Week",
        "inputValues": [
            "0",
            "<10 Km/Week",
            "<20 Km/Week",
            "<30 Km/Week",
            "<40 Km/Week",
            "<50 Km/Week",
            "<60 Km/Week",
            "Over 60 Km/Week"
        ],
        "footprintValues": [
            "0",
            "0.5",
            "1.2",
            "1.8",
            "2.4",
            "3",
            "3.6",
            "4.2"
        ]
    },
    "Jeepney": {
        "footprintSuffix": "kg CO2/Week",
        "inputValues": [
            "0",
            "About 5 times a week",
            "Rides jeep everyday",
            "Rides jeep twice everyday",
            "Rides jeep thrice a day",
            "Rides jeep 4x a day",
            "Rides jeep 5x a day",
            "Always rides the jeep"
        ],
        "footprintValues": [
            "0",
            "0.7",
            "0.9",
            "1.8",
            "2.8",
            "3.7",
            "4.6",
            "5.3"
        ]
    },
    "Light Bulb": {
        "footprintSuffix": "kg CO2",
        "inputValues": [
            "0",
            "4 Hours",
            "8 Hours",
            "24 Hours",
            "1 Week",
            "2 Weeks",
            "1 Month",
            "2 Months"
        ],
        "footprintValues": [
            "0",
            "0.1",
            "0.3",
            "0.8",
            "1.8",
            "3.6",
            "7.3",
            "14.6"
        ]
    },
    "Bottled Water": {
        "footprintSuffix": "g CO2",
        "inputValues": [
            "0",
            "10 Bottles",
            "20 Bottles",
            "30 Bottles",
            "40 Bottles",
            "50 Bottles",
            "60 Bottles",
            "Over 60 Bottles"
        ],
        "footprintValues": [
            "0",
            "0.3",
            "0.7",
            "1",
            "1.4",
            "1.7",
            "2.1",
            "2.4"
        ]
    },
    "Paper": {
        "footprintSuffix": "kg CO2",
        "inputValues": [
            "0",
            "1 Sheet",
            "10 Sheets",
            "50 Sheets",
            "100 Sheets",
            "1 Ream",
            "5 Reams",
            "Over 5 Reams"
        ],
        "footprintValues": [
            "0",
            "0.01",
            "0.1",
            "0.5",
            "1",
            "5",
            "25",
            "35"
        ]
    },
    "Plastic Bag": {
        "footprintSuffix": "kg CO2",
        "inputValues": [
            "0",
            "10 Bags",
            "20 Bags",
            "30 Bags",
            "40 Bags",
            "50 Bags",
            "60 Bags",
            "100 Bags"
        ],
        "footprintValues": [
            "0",
            "1.9",
            "3.8",
            "5.6",
            "7.5",
            "9.4",
            "11.3",
            "18.8"
        ]
    },
    "Air Conditioner": {
        "footprintSuffix": "kg CO2",
        "inputValues": [
            "0",
            "4 Hours",
            "8 Hours",
            "24 Hours",
            "1 Week",
            "2 Weeks",
            "1 Month",
            "2 Months"
        ],
        "footprintValues": [
            "0",
            "1.7",
            "3.5",
            "10.4",
            "24.2",
            "48.5",
            "97",
            "193.9"
        ]
    },
    "Airplane": {
        "footprintSuffix": "kg CO2/km",
        "inputValues": [
            "33",
            ">100 km",
            ">200 km",
            ">300 km",
            ">400 km",
            ">500 km",
            ">600 km",
            "Over 600 km"
        ],
        "footprintValues": [
            "0",
            "26",
            "52",
            "78",
            "103.9",
            "129.9",
            "155.9",
            "168.9"
        ]
    },
    "Mobile Phone": {
        "footprintSuffix": "kg CO2",
        "inputValues": [
            "0",
            "Less than 3 months",
            "Less than 6 months",
            "Less than 1 year",
            "Less than 2 years",
            "Less than 3 years",
            "Less than 4 years",
            "Over 4 years"
        ],
        "footprintValues": [
            "0",
            "0.2",
            "0.4",
            "0.8",
            "1.6",
            "2.3",
            "3.1",
            "3.5"
        ]
    }
}